<svg width="14" height="14" viewBox="0 0 14 14" fill="none" xmlns="http://www.w3.org/2000/svg">
<path fill-rule="evenodd" clip-rule="evenodd" d="M7.00061 5.58514L11.5926 0.993177C11.9835 0.602291 12.6172 0.602291 13.0081 0.993177C13.399 1.38406 13.399 2.01781 13.0081 2.4087L8.41678 7.00001L13.0081 11.5913C13.399 11.9822 13.399 12.616 13.0081 13.0068C12.6172 13.3977 11.9835 13.3977 11.5926 13.0068L7.00061 8.41488L2.40864 13.0068C2.01775 13.3977 1.384 13.3977 0.993115 13.0068C0.60223 12.616 0.60223 11.9822 0.993115 11.5913L5.58443 7.00001L0.993115 2.4087C0.60223 2.01781 0.60223 1.38406 0.993115 0.993177C1.384 0.602291 2.01775 0.602291 2.40864 0.993177L7.00061 5.58514Z" fill="#8792A2"/>
</svg>
