<svg width="16" height="16" viewBox="0 0 16 16" fill="none" xmlns="http://www.w3.org/2000/svg">
<g id="fee">
<g id="Glyph">
<path d="M15.8 4.30194L9.17303 6.83929L11.0102 0.000244141C13.2051 0.586842 14.9857 2.18604 15.8 4.30194Z" fill="#30313D"/>
<path d="M14.1568 10.7507C14.4815 9.5421 14.4782 8.27367 14.1537 7.07388L9.88816 8.70706C8.36225 9.29131 6.8176 7.8984 7.24151 6.32041L8.42193 1.92628C4.8721 1.35531 1.39445 3.5463 0.443648 7.08567C-0.571019 10.8628 1.67623 14.7452 5.46302 15.7572C9.24981 16.7693 13.1422 14.5278 14.1568 10.7507Z" fill="#30313D"/>
</g>
</g>
</svg>
